Lab2/simulation/qsim/LogicalStep_Lab2.msim.vcd
$comment
	File created using the following command:
		vcd file LogicalStep_Lab2.msim.vcd -direction
$end
$date
	Wed Feb 09 09:55:14 2022
$end
$version
	ModelSim Version 10.5b
$end
$timescale
	1ps
$end

$scope module logicalstep_lab2_top_vhd_vec_tst $end
$var wire 1 ! leds [5] $end
$var wire 1 " leds [4] $end
$var wire 1 # leds [3] $end
$var wire 1 $ leds [2] $end
$var wire 1 % leds [1] $end
$var wire 1 & leds [0] $end
$var wire 1 ' pb [6] $end
$var wire 1 ( pb [5] $end
$var wire 1 ) pb [4] $end
$var wire 1 * pb [3] $end
$var wire 1 + pb [2] $end
$var wire 1 , pb [1] $end
$var wire 1 - pb [0] $end
$var wire 1 . sw [15] $end
$var wire 1 / sw [14] $end
$var wire 1 0 sw [13] $end
$var wire 1 1 sw [12] $end
$var wire 1 2 sw [11] $end
$var wire 1 3 sw [10] $end
$var wire 1 4 sw [9] $end
$var wire 1 5 sw [8] $end
$var wire 1 6 sw [7] $end
$var wire 1 7 sw [6] $end
$var wire 1 8 sw [5] $end
$var wire 1 9 sw [4] $end
$var wire 1 : sw [3] $end
$var wire 1 ; sw [2] $end
$var wire 1 < sw [1] $end
$var wire 1 = sw [0] $end

$scope module i1 $end
$var wire 1 > gnd $end
$var wire 1 ? vcc $end
$var wire 1 @ unknown $end
$var wire 1 A devoe $end
$var wire 1 B devclrn $end
$var wire 1 C devpor $end
$var wire 1 D ww_devoe $end
$var wire 1 E ww_devclrn $end
$var wire 1 F ww_devpor $end
$var wire 1 G ww_pb [6] $end
$var wire 1 H ww_pb [5] $end
$var wire 1 I ww_pb [4] $end
$var wire 1 J ww_pb [3] $end
$var wire 1 K ww_pb [2] $end
$var wire 1 L ww_pb [1] $end
$var wire 1 M ww_pb [0] $end
$var wire 1 N ww_sw [15] $end
$var wire 1 O ww_sw [14] $end
$var wire 1 P ww_sw [13] $end
$var wire 1 Q ww_sw [12] $end
$var wire 1 R ww_sw [11] $end
$var wire 1 S ww_sw [10] $end
$var wire 1 T ww_sw [9] $end
$var wire 1 U ww_sw [8] $end
$var wire 1 V ww_sw [7] $end
$var wire 1 W ww_sw [6] $end
$var wire 1 X ww_sw [5] $end
$var wire 1 Y ww_sw [4] $end
$var wire 1 Z ww_sw [3] $end
$var wire 1 [ ww_sw [2] $end
$var wire 1 \ ww_sw [1] $end
$var wire 1 ] ww_sw [0] $end
$var wire 1 ^ ww_leds [5] $end
$var wire 1 _ ww_leds [4] $end
$var wire 1 ` ww_leds [3] $end
$var wire 1 a ww_leds [2] $end
$var wire 1 b ww_leds [1] $end
$var wire 1 c ww_leds [0] $end
$var wire 1 d \leds[0]~output_o\ $end
$var wire 1 e \leds[1]~output_o\ $end
$var wire 1 f \leds[2]~output_o\ $end
$var wire 1 g \leds[3]~output_o\ $end
$var wire 1 h \leds[4]~output_o\ $end
$var wire 1 i \leds[5]~output_o\ $end
$var wire 1 j \sw[8]~input_o\ $end
$var wire 1 k \pb[3]~input_o\ $end
$var wire 1 l \sw[4]~input_o\ $end
$var wire 1 m \pb[2]~input_o\ $end
$var wire 1 n \sw[0]~input_o\ $end
$var wire 1 o \hex_mux_inst_1|Mux3~0_combout\ $end
$var wire 1 p \sw[12]~input_o\ $end
$var wire 1 q \hex_mux_inst_1|Mux3~1_combout\ $end
$var wire 1 r \pb[1]~input_o\ $end
$var wire 1 s \pb[0]~input_o\ $end
$var wire 1 t \hex_mux_inst_0|Mux3~0_combout\ $end
$var wire 1 u \hex_mux_inst_0|Mux3~1_combout\ $end
$var wire 1 v \pb[4]~input_o\ $end
$var wire 1 w \pb[5]~input_o\ $end
$var wire 1 x \logic_proc_inst|Mux3~9_combout\ $end
$var wire 1 y \pb[6]~input_o\ $end
$var wire 1 z \logic_proc_inst|Mux3~10_combout\ $end
$var wire 1 { \sw[5]~input_o\ $end
$var wire 1 | \sw[9]~input_o\ $end
$var wire 1 } \sw[1]~input_o\ $end
$var wire 1 ~ \hex_mux_inst_0|Mux2~0_combout\ $end
$var wire 1 !! \sw[13]~input_o\ $end
$var wire 1 "! \hex_mux_inst_0|Mux2~1_combout\ $end
$var wire 1 #! \hex_mux_inst_1|Mux2~0_combout\ $end
$var wire 1 $! \hex_mux_inst_1|Mux2~1_combout\ $end
$var wire 1 %! \logic_proc_inst|logic_out~0_combout\ $end
$var wire 1 &! \mux_out_inst|output[1]~0_combout\ $end
$var wire 1 '! \logic_proc_inst|Mux3~6_combout\ $end
$var wire 1 (! \mux_out_inst|output[1]~1_combout\ $end
$var wire 1 )! \logic_proc_inst|Mux3~8_combout\ $end
$var wire 1 *! \mux_out_inst|output[1]~2_combout\ $end
$var wire 1 +! \logic_proc_inst|Mux3~7_combout\ $end
$var wire 1 ,! \mux_out_inst|output[1]~3_combout\ $end
$var wire 1 -! \sw[10]~input_o\ $end
$var wire 1 .! \sw[6]~input_o\ $end
$var wire 1 /! \sw[2]~input_o\ $end
$var wire 1 0! \hex_mux_inst_0|Mux1~0_combout\ $end
$var wire 1 1! \sw[14]~input_o\ $end
$var wire 1 2! \hex_mux_inst_0|Mux1~1_combout\ $end
$var wire 1 3! \hex_mux_inst_1|Mux1~0_combout\ $end
$var wire 1 4! \hex_mux_inst_1|Mux1~1_combout\ $end
$var wire 1 5! \mux_out_inst|output[2]~4_combout\ $end
$var wire 1 6! \mux_out_inst|output[2]~5_combout\ $end
$var wire 1 7! \full_addder_4bit_inst|adder1|carry_out_bit~0_combout\ $end
$var wire 1 8! \full_addder_4bit_inst|adder2|bit_sum~combout\ $end
$var wire 1 9! \mux_out_inst|output[2]~6_combout\ $end
$var wire 1 :! \sw[7]~input_o\ $end
$var wire 1 ;! \sw[11]~input_o\ $end
$var wire 1 <! \sw[3]~input_o\ $end
$var wire 1 =! \hex_mux_inst_0|Mux0~0_combout\ $end
$var wire 1 >! \sw[15]~input_o\ $end
$var wire 1 ?! \hex_mux_inst_0|Mux0~1_combout\ $end
$var wire 1 @! \hex_mux_inst_1|Mux0~0_combout\ $end
$var wire 1 A! \hex_mux_inst_1|Mux0~1_combout\ $end
$var wire 1 B! \mux_out_inst|output[3]~7_combout\ $end
$var wire 1 C! \full_addder_4bit_inst|adder2|carry_out_bit~0_combout\ $end
$var wire 1 D! \logic_proc_inst|logic_out~1_combout\ $end
$var wire 1 E! \mux_out_inst|output[3]~8_combout\ $end
$var wire 1 F! \mux_out_inst|output[4]~9_combout\ $end
$upscope $end
$upscope $end
$enddefinitions $end
#0
$dumpvars
0>
1?
x@
1A
1B
1C
1D
1E
1F
1d
0e
0f
1g
0h
0i
1j
0k
1l
0m
1n
1o
0p
1q
0r
0s
1t
1u
0v
0w
1x
0y
1z
1{
1|
0}
0~
1!!
0"!
0#!
0$!
0%!
0&!
1'!
0(!
0)!
0*!
0+!
0,!
0-!
1.!
0/!
00!
01!
02!
03!
04!
05!
06!
07!
08!
09!
0:!
0;!
1<!
1=!
1>!
1?!
1@!
1A!
1B!
0C!
0D!
1E!
0F!
0'
0(
0)
0*
0+
0,
0-
1.
0/
10
01
02
03
14
15
06
17
18
19
1:
0;
0<
1=
0!
0"
1#
0$
0%
1&
0G
0H
0I
0J
0K
0L
0M
1N
0O
1P
0Q
0R
0S
1T
1U
0V
1W
1X
1Y
1Z
0[
0\
1]
0^
0_
1`
0a
0b
1c
$end
#100000
1)
1*
1-
1M
1J
1I
1v
1k
1s
1"!
10!
0=!
0o
0q
1#!
0@!
0A!
1$!
1q
0?!
12!
1%!
1(!
1*!
15!
18!
0%!
17!
0B!
0E!
08!
1C!
19!
1,!
1e
1f
0g
1b
1a
0`
1%
1$
0#
#200000
0)
0*
0-
1(
1,
0M
1L
0J
0I
1H
1w
0v
0k
1r
0s
0"!
0t
0u
1~
00!
02!
1o
0q
0#!
1@!
05!
0x
0'!
1)!
09!
1A!
0$!
1q
18!
0C!
1"!
0z
1u
1%!
0(!
07!
0d
0f
08!
17!
1B!
1D!
0c
0a
1E!
18!
0&
0$
1g
1`
1#
#300000
1)
1*
1-
1+
1M
1K
1J
1I
1v
1k
1m
1s
1t
10!
1=!
1$!
0q
1#!
13!
1x
0*!
1+!
16!
0B!
0E!
19!
0,!
0x
1z
0%!
1?!
0u
1d
0e
1f
0g
1x
1B!
0D!
1,!
0z
1c
0b
1a
0`
0d
1e
1E!
1z
1&
0%
1$
0#
0c
1b
1d
1g
0&
1%
1c
1`
1&
1#
#400000
0)
0*
0-
0(
0,
0M
0L
0J
0I
0H
0w
0v
0k
0r
0s
1u
0~
00!
12!
1q
0#!
14!
0@!
06!
0x
1'!
0)!
0+!
0,!
1(!
09!
0A!
15!
1C!
02!
0"!
1x
0z
0d
0f
0e
1z
1%!
0(!
05!
08!
19!
0B!
1D!
1*!
0c
0a
0b
1f
1d
0E!
09!
0*!
1,!
0&
0%
0$
1a
1c
1e
0f
0g
0,!
1&
1$
1b
0a
0`
0e
1%
0$
0#
0b
0%
#500000
1)
1*
1-
00
11
12
13
04
07
08
0:
1;
0=
1'
1M
1J
1I
1G
0]
1[
0Z
0X
0W
0T
1S
1R
1Q
0P
0!!
1p
1;!
1-!
0|
0.!
0{
0<!
1/!
0n
1y
1v
1k
1s
1i
1(!
15!
1B!
0z
0'!
1F!
1#!
04!
0=!
1@!
0$!
1^
1h
0d
0%!
07!
1A!
0?!
18!
0C!
0(!
05!
19!
1*!
1!
1_
0c
1f
1E!
0F!
08!
1&!
0*!
1,!
0&
1"
1a
1e
0h
1g
09!
1$
1b
0_
1`
0f
1%
1#
0"
0a
0$
#600000
0)
0*
0-
1(
1,
0+
0M
1L
0K
0J
0I
1H
1w
0v
0k
0m
1r
0s
0t
12!
1=!
1$!
0o
0#!
14!
0@!
0x
0A!
0$!
0q
1%!
17!
1?!
1C!
0E!
18!
1x
1z
0%!
07!
1F!
1h
1d
0g
08!
0&!
19!
1_
1c
0`
1f
0,!
09!
1&
0#
1"
1a
0f
0e
1$
0a
0b
0%
0$
#700000
1)
1*
1-
1M
1J
1I
1v
1k
1s
1t
1~
10!
1q
03!
04!
1@!
0x
0B!
1A!
18!
0C!
14!
1x
0z
1&!
02!
0d
1,!
1E!
19!
1B!
0D!
0c
1f
1g
1e
0E!
0&
1a
1`
1b
0g
1%
1$
1#
0`
0#
#800000
0)
0*
0-
0(
0,
0M
0L
0J
0I
0H
0w
0v
0k
0r
0s
1"!
0t
0~
12!
0=!
0q
13!
04!
0@!
0A!
14!
0x
1z
0&!
0?!
0"!
0u
1%!
1d
1&!
0%!
0,!
0z
08!
1C!
0B!
0F!
1c
0h
0d
0e
1E!
09!
0&!
1,!
1&
0_
0c
0b
1e
0f
1g
0,!
0&
0%
0"
1b
0a
1`
0e
1%
0$
1#
0b
0%
#900000
1)
1*
1-
1+
1M
1K
1J
1I
1v
1k
1m
1s
1t
00!
1o
1q
1#!
04!
1@!
1A!
18!
0C!
1x
1z
02!
1u
1d
1&!
08!
0z
0E!
19!
1B!
1D!
1c
1f
0g
0d
1E!
09!
1,!
1&
1a
0`
0c
1e
0f
1g
0&
1$
0#
1b
0a
1`
1%
0$
1#
