Lab3/simulation/qsim/LogicalStep_Lab3.msim.vcd
$comment
	File created using the following command:
		vcd file LogicalStep_Lab3.msim.vcd -direction
$end
$date
	Sun Feb 20 20:04:17 2022
$end
$version
	ModelSim Version 10.5b
$end
$timescale
	1ps
$end

$scope module logicalstep_lab3_top_vhd_vec_tst $end
$var wire 1 ! clkin_50 $end
$var wire 1 " leds [7] $end
$var wire 1 # leds [6] $end
$var wire 1 $ leds [5] $end
$var wire 1 % leds [4] $end
$var wire 1 & leds [3] $end
$var wire 1 ' leds [2] $end
$var wire 1 ( leds [1] $end
$var wire 1 ) leds [0] $end
$var wire 1 * pb_n [3] $end
$var wire 1 + pb_n [2] $end
$var wire 1 , pb_n [1] $end
$var wire 1 - pb_n [0] $end
$var wire 1 . seg7_char1 $end
$var wire 1 / seg7_char2 $end
$var wire 1 0 seg7_data [6] $end
$var wire 1 1 seg7_data [5] $end
$var wire 1 2 seg7_data [4] $end
$var wire 1 3 seg7_data [3] $end
$var wire 1 4 seg7_data [2] $end
$var wire 1 5 seg7_data [1] $end
$var wire 1 6 seg7_data [0] $end
$var wire 1 7 sw [7] $end
$var wire 1 8 sw [6] $end
$var wire 1 9 sw [5] $end
$var wire 1 : sw [4] $end
$var wire 1 ; sw [3] $end
$var wire 1 < sw [2] $end
$var wire 1 = sw [1] $end
$var wire 1 > sw [0] $end

$scope module i1 $end
$var wire 1 ? gnd $end
$var wire 1 @ vcc $end
$var wire 1 A unknown $end
$var wire 1 B devoe $end
$var wire 1 C devclrn $end
$var wire 1 D devpor $end
$var wire 1 E ww_devoe $end
$var wire 1 F ww_devclrn $end
$var wire 1 G ww_devpor $end
$var wire 1 H ww_clkin_50 $end
$var wire 1 I ww_pb_n [3] $end
$var wire 1 J ww_pb_n [2] $end
$var wire 1 K ww_pb_n [1] $end
$var wire 1 L ww_pb_n [0] $end
$var wire 1 M ww_sw [7] $end
$var wire 1 N ww_sw [6] $end
$var wire 1 O ww_sw [5] $end
$var wire 1 P ww_sw [4] $end
$var wire 1 Q ww_sw [3] $end
$var wire 1 R ww_sw [2] $end
$var wire 1 S ww_sw [1] $end
$var wire 1 T ww_sw [0] $end
$var wire 1 U ww_leds [7] $end
$var wire 1 V ww_leds [6] $end
$var wire 1 W ww_leds [5] $end
$var wire 1 X ww_leds [4] $end
$var wire 1 Y ww_leds [3] $end
$var wire 1 Z ww_leds [2] $end
$var wire 1 [ ww_leds [1] $end
$var wire 1 \ ww_leds [0] $end
$var wire 1 ] ww_seg7_data [6] $end
$var wire 1 ^ ww_seg7_data [5] $end
$var wire 1 _ ww_seg7_data [4] $end
$var wire 1 ` ww_seg7_data [3] $end
$var wire 1 a ww_seg7_data [2] $end
$var wire 1 b ww_seg7_data [1] $end
$var wire 1 c ww_seg7_data [0] $end
$var wire 1 d ww_seg7_char1 $end
$var wire 1 e ww_seg7_char2 $end
$var wire 1 f \pb_n[0]~input_o\ $end
$var wire 1 g \pb_n[1]~input_o\ $end
$var wire 1 h \pb_n[2]~input_o\ $end
$var wire 1 i \pb_n[3]~input_o\ $end
$var wire 1 j \seg7_data[1]~output_o\ $end
$var wire 1 k \seg7_data[5]~output_o\ $end
$var wire 1 l \seg7_data[6]~output_o\ $end
$var wire 1 m \leds[0]~output_o\ $end
$var wire 1 n \leds[1]~output_o\ $end
$var wire 1 o \leds[2]~output_o\ $end
$var wire 1 p \leds[3]~output_o\ $end
$var wire 1 q \leds[4]~output_o\ $end
$var wire 1 r \leds[5]~output_o\ $end
$var wire 1 s \leds[6]~output_o\ $end
$var wire 1 t \leds[7]~output_o\ $end
$var wire 1 u \seg7_data[0]~output_o\ $end
$var wire 1 v \seg7_data[2]~output_o\ $end
$var wire 1 w \seg7_data[3]~output_o\ $end
$var wire 1 x \seg7_data[4]~output_o\ $end
$var wire 1 y \seg7_char1~output_o\ $end
$var wire 1 z \seg7_char2~output_o\ $end
$var wire 1 { \sw[0]~input_o\ $end
$var wire 1 | \sw[1]~input_o\ $end
$var wire 1 } \sw[2]~input_o\ $end
$var wire 1 ~ \sw[3]~input_o\ $end
$var wire 1 !! \inst1|Mux5~0_combout\ $end
$var wire 1 "! \sw[4]~input_o\ $end
$var wire 1 #! \sw[5]~input_o\ $end
$var wire 1 $! \sw[6]~input_o\ $end
$var wire 1 %! \sw[7]~input_o\ $end
$var wire 1 &! \inst2|Mux5~0_combout\ $end
$var wire 1 '! \clkin_50~input_o\ $end
$var wire 1 (! \inst3|clk_proc:COUNT[0]~0_combout\ $end
$var wire 1 )! \inst3|clk_proc:COUNT[0]~q\ $end
$var wire 1 *! \inst3|clk_proc:COUNT[1]~1_combout\ $end
$var wire 1 +! \inst3|clk_proc:COUNT[1]~q\ $end
$var wire 1 ,! \inst3|clk_proc:COUNT[1]~2\ $end
$var wire 1 -! \inst3|clk_proc:COUNT[2]~1_combout\ $end
$var wire 1 .! \inst3|clk_proc:COUNT[2]~q\ $end
$var wire 1 /! \inst3|clk_proc:COUNT[2]~2\ $end
$var wire 1 0! \inst3|clk_proc:COUNT[3]~1_combout\ $end
$var wire 1 1! \inst3|clk_proc:COUNT[3]~q\ $end
$var wire 1 2! \inst3|clk_proc:COUNT[3]~2\ $end
$var wire 1 3! \inst3|clk_proc:COUNT[4]~1_combout\ $end
$var wire 1 4! \inst3|clk_proc:COUNT[4]~q\ $end
$var wire 1 5! \inst3|clk_proc:COUNT[4]~2\ $end
$var wire 1 6! \inst3|clk_proc:COUNT[5]~1_combout\ $end
$var wire 1 7! \inst3|clk_proc:COUNT[5]~q\ $end
$var wire 1 8! \inst3|clk_proc:COUNT[5]~2\ $end
$var wire 1 9! \inst3|clk_proc:COUNT[6]~1_combout\ $end
$var wire 1 :! \inst3|clk_proc:COUNT[6]~q\ $end
$var wire 1 ;! \inst3|clk_proc:COUNT[6]~2\ $end
$var wire 1 <! \inst3|clk_proc:COUNT[7]~1_combout\ $end
$var wire 1 =! \inst3|clk_proc:COUNT[7]~q\ $end
$var wire 1 >! \inst3|clk_proc:COUNT[7]~2\ $end
$var wire 1 ?! \inst3|clk_proc:COUNT[8]~1_combout\ $end
$var wire 1 @! \inst3|clk_proc:COUNT[8]~q\ $end
$var wire 1 A! \inst3|clk_proc:COUNT[8]~2\ $end
$var wire 1 B! \inst3|clk_proc:COUNT[9]~1_combout\ $end
$var wire 1 C! \inst3|clk_proc:COUNT[9]~q\ $end
$var wire 1 D! \inst3|clk_proc:COUNT[9]~2\ $end
$var wire 1 E! \inst3|clk_proc:COUNT[10]~1_combout\ $end
$var wire 1 F! \inst3|clk_proc:COUNT[10]~q\ $end
$var wire 1 G! \inst3|DOUT_TEMP[1]~0_combout\ $end
$var wire 1 H! \inst1|Mux1~0_combout\ $end
$var wire 1 I! \inst2|Mux1~0_combout\ $end
$var wire 1 J! \inst3|DOUT_TEMP[5]~1_combout\ $end
$var wire 1 K! \inst1|Mux0~0_combout\ $end
$var wire 1 L! \inst2|Mux0~0_combout\ $end
$var wire 1 M! \inst3|DOUT_TEMP[6]~2_combout\ $end
$var wire 1 N! \Compx4_instance|ALTB~0_combout\ $end
$var wire 1 O! \Compx4_instance|ALTB~1_combout\ $end
$var wire 1 P! \Compx4_instance|ALTB~2_combout\ $end
$var wire 1 Q! \Compx4_instance|ALTB~3_combout\ $end
$var wire 1 R! \Compx4_instance|AEQB~0_combout\ $end
$var wire 1 S! \Compx4_instance|AEQB~combout\ $end
$var wire 1 T! \Compx4_instance|AGTB~0_combout\ $end
$var wire 1 U! \Compx4_instance|AGTB~1_combout\ $end
$var wire 1 V! \Compx4_instance|AGTB~2_combout\ $end
$var wire 1 W! \inst1|Mux6~0_combout\ $end
$var wire 1 X! \inst2|Mux6~0_combout\ $end
$var wire 1 Y! \inst3|DOUT[0]~0_combout\ $end
$var wire 1 Z! \inst1|Mux4~0_combout\ $end
$var wire 1 [! \inst2|Mux4~0_combout\ $end
$var wire 1 \! \inst3|DOUT[2]~2_combout\ $end
$var wire 1 ]! \inst1|Mux3~0_combout\ $end
$var wire 1 ^! \inst2|Mux3~0_combout\ $end
$var wire 1 _! \inst3|DOUT[3]~3_combout\ $end
$var wire 1 `! \inst1|Mux2~0_combout\ $end
$var wire 1 a! \inst2|Mux2~0_combout\ $end
$var wire 1 b! \inst3|DOUT[4]~4_combout\ $end
$var wire 1 c! \Compx4_instance|ALT_INV_AEQB~combout\ $end
$var wire 1 d! \inst3|ALT_INV_clk_proc:COUNT[10]~q\ $end
$upscope $end
$upscope $end
$enddefinitions $end
#0
$dumpvars
x!
1.
0/
0?
1@
xA
1B
1C
1D
1E
1F
1G
xH
1d
0e
xf
xg
xh
xi
0j
0k
zl
0m
0n
1o
0p
0q
0r
0s
0t
0u
0v
0w
0x
1y
0z
0{
0|
0}
1~
1!!
0"!
0#!
0$!
0%!
0&!
x'!
1(!
0)!
0*!
0+!
0,!
0-!
0.!
1/!
00!
01!
02!
03!
04!
15!
06!
07!
08!
09!
0:!
1;!
0<!
0=!
0>!
0?!
0@!
1A!
0B!
0C!
0D!
0E!
0F!
0G!
1H!
0I!
0J!
0K!
0L!
1M!
0N!
0O!
0P!
0Q!
0R!
1S!
1T!
0U!
1V!
1W!
0X!
0Y!
1Z!
0[!
0\!
1]!
0^!
0_!
1`!
0a!
0b!
0c!
1d!
07
08
09
0:
1;
0<
0=
0>
xI
xJ
xK
xL
0M
0N
0O
0P
1Q
0R
0S
0T
0U
0V
0W
0X
0Y
1Z
0[
0\
z]
0^
0_
0`
0a
0b
0c
0"
0#
0$
0%
0&
1'
0(
0)
x*
x+
x,
x-
z0
01
02
03
04
05
06
$end
#50000
1:
1P
1"!
1&!
1L!
1O!
1R!
1[!
1\!
0M!
1G!
zj
0l
1v
zb
0]
1a
z5
14
00
#100000
0:
19
0P
1O
1#!
0"!
0L!
1X!
0[!
1^!
1a!
1b!
1_!
0\!
1Y!
1M!
zl
1u
0v
1w
1x
z]
1c
0a
1`
1_
16
04
13
12
z0
#150000
1:
1P
1"!
1[!
0a!
0b!
1\!
1v
0x
1a
0_
14
02
#200000
0:
09
18
0P
0O
1N
1$!
0#!
0"!
0O!
0R!
1I!
0X!
0^!
0_!
0Y!
1J!
zk
0u
0w
z^
0c
0`
06
03
z1
#250000
1:
1P
1"!
0&!
1O!
1R!
1X!
1^!
1_!
1Y!
0G!
0j
1u
1w
0b
1c
1`
16
05
13
#300000
0:
19
0P
1O
1#!
0"!
1a!
1b!
1x
1_
12
#350000
1:
1P
1"!
1&!
0I!
1L!
0^!
0a!
0b!
0_!
0M!
0J!
1G!
zj
0k
0l
0w
0x
zb
0^
0]
0`
0_
z5
03
02
01
00
#400000
0:
09
08
17
0P
0O
0N
1M
1%!
0$!
0#!
0"!
0O!
0R!
1I!
0L!
1P!
0T!
1^!
1a!
1b!
1_!
0V!
1M!
1J!
0S!
1c!
zk
zl
0o
1w
1x
1n
z^
z]
0Z
1`
1_
1[
13
12
z1
z0
0'
1(
#450000
1:
1P
1"!
1O!
1R!
0a!
0b!
1S!
1Q!
0c!
1m
0x
0n
1\
0_
0[
1)
02
0(
#500000
0:
19
0P
1O
1#!
0"!
0^!
1a!
1b!
0_!
0w
1x
0`
1_
03
12
#550000
1:
1P
1"!
0&!
0X!
1^!
1_!
0Y!
0G!
0j
0u
1w
0b
0c
1`
06
05
13
#600000
0:
09
18
0P
0O
1N
1$!
0#!
0"!
0O!
0R!
0I!
1N!
0P!
0[!
0\!
0J!
0k
0v
0^
0a
04
01
#650000
1:
1P
1"!
1&!
1O!
1R!
1[!
1\!
1G!
zj
1v
zb
1a
z5
14
#700000
0:
19
0P
1O
1#!
0"!
0&!
1I!
1X!
0[!
0\!
1Y!
1J!
0G!
0j
zk
1u
0v
0b
z^
1c
0a
16
05
04
z1
#750000
1:
1P
1"!
0^!
0_!
0w
0`
03
