Lab 1/simulation/qsim/LogicalStep_Lab1.msim.vcd
$comment
	File created using the following command:
		vcd file LogicalStep_Lab1.msim.vcd -direction
$end
$date
	Fri Jan 21 18:22:57 2022
$end
$version
	ModelSim Version 10.5b
$end
$timescale
	1ps
$end

$scope module logicalstep_lab1_top_vhd_vec_tst $end
$var wire 1 ! leds [7] $end
$var wire 1 " leds [6] $end
$var wire 1 # leds [5] $end
$var wire 1 $ leds [4] $end
$var wire 1 % leds [3] $end
$var wire 1 & leds [2] $end
$var wire 1 ' leds [1] $end
$var wire 1 ( leds [0] $end
$var wire 1 ) PB [1] $end
$var wire 1 * PB [0] $end
$var wire 1 + sw [1] $end

$scope module i1 $end
$var wire 1 , gnd $end
$var wire 1 - vcc $end
$var wire 1 . unknown $end
$var wire 1 / devoe $end
$var wire 1 0 devclrn $end
$var wire 1 1 devpor $end
$var wire 1 2 ww_devoe $end
$var wire 1 3 ww_devclrn $end
$var wire 1 4 ww_devpor $end
$var wire 1 5 ww_leds [7] $end
$var wire 1 6 ww_leds [6] $end
$var wire 1 7 ww_leds [5] $end
$var wire 1 8 ww_leds [4] $end
$var wire 1 9 ww_leds [3] $end
$var wire 1 : ww_leds [2] $end
$var wire 1 ; ww_leds [1] $end
$var wire 1 < ww_leds [0] $end
$var wire 1 = ww_PB [1] $end
$var wire 1 > ww_PB [0] $end
$var wire 1 ? ww_sw [1] $end
$var wire 1 @ \leds[7]~output_o\ $end
$var wire 1 A \leds[6]~output_o\ $end
$var wire 1 B \leds[5]~output_o\ $end
$var wire 1 C \leds[4]~output_o\ $end
$var wire 1 D \leds[3]~output_o\ $end
$var wire 1 E \leds[2]~output_o\ $end
$var wire 1 F \leds[1]~output_o\ $end
$var wire 1 G \leds[0]~output_o\ $end
$var wire 1 H \PB[1]~input_o\ $end
$var wire 1 I \PB[0]~input_o\ $end
$var wire 1 J \sw[1]~input_o\ $end
$var wire 1 K \inst3|OUT4~0_combout\ $end
$var wire 1 L \inst3|OUT3~0_combout\ $end
$var wire 1 M \inst3|OUT2~0_combout\ $end
$var wire 1 N \inst3|ALT_INV_OUT2~0_combout\ $end
$var wire 1 O \inst3|ALT_INV_OUT3~0_combout\ $end
$var wire 1 P \inst3|ALT_INV_OUT4~0_combout\ $end
$upscope $end
$upscope $end
$enddefinitions $end
#0
$dumpvars
0,
1-
x.
1/
10
11
12
13
14
1@
1A
0B
1C
1D
1E
0F
1G
0H
0I
0J
0K
0L
0M
1N
1O
1P
0)
0*
0+
15
16
07
18
19
1:
0;
1<
0=
0>
0?
1!
1"
0#
1$
1%
1&
0'
1(
$end
#250000
1*
1>
1I
1K
1L
0O
0P
0@
0D
0A
0E
05
09
06
0:
0&
0%
0"
0!
#500000
0*
1)
0>
1=
1H
0I
#750000
1*
1>
1I
0K
1M
0N
1P
1B
1F
1@
1D
0C
0G
17
1;
15
19
08
0<
1'
1#
0(
1%
0$
1!
#1000000
0*
0)
1+
0>
0=
1?
1J
0H
0I
1K
0P
0@
0D
05
09
0%
0!
#1250000
1*
1>
1I
0K
0L
1O
1P
1@
1D
1A
1E
15
19
16
1:
1&
1%
1"
1!
#1500000
0*
1)
0>
1=
1H
0I
#1750000
1*
1>
1I
1K
0M
1N
0P
0B
0F
0@
0D
1C
1G
07
0;
05
09
18
1<
0'
0#
1(
0%
1$
0!
