Lab4/simulation/qsim/LogicalStep_Lab4.msim.vcd
$comment
	File created using the following command:
		vcd file LogicalStep_Lab4.msim.vcd -direction
$end
$date
	Wed Mar 30 12:25:39 2022
$end
$version
	ModelSim Version 10.5b
$end
$timescale
	1ps
$end

$scope module logicalstep_lab4_top_vhd_vec_tst $end
$var wire 1 ! Clk $end
$var wire 1 " leds [7] $end
$var wire 1 # leds [6] $end
$var wire 1 $ leds [5] $end
$var wire 1 % leds [4] $end
$var wire 1 & leds [3] $end
$var wire 1 ' leds [2] $end
$var wire 1 ( leds [1] $end
$var wire 1 ) leds [0] $end
$var wire 1 * pb_n [3] $end
$var wire 1 + pb_n [2] $end
$var wire 1 , pb_n [1] $end
$var wire 1 - pb_n [0] $end
$var wire 1 . seg7_char1 $end
$var wire 1 / seg7_char2 $end
$var wire 1 0 seg7_data [6] $end
$var wire 1 1 seg7_data [5] $end
$var wire 1 2 seg7_data [4] $end
$var wire 1 3 seg7_data [3] $end
$var wire 1 4 seg7_data [2] $end
$var wire 1 5 seg7_data [1] $end
$var wire 1 6 seg7_data [0] $end
$var wire 1 7 sw [7] $end
$var wire 1 8 sw [6] $end
$var wire 1 9 sw [5] $end
$var wire 1 : sw [4] $end
$var wire 1 ; sw [3] $end
$var wire 1 < sw [2] $end
$var wire 1 = sw [1] $end
$var wire 1 > sw [0] $end
$var wire 1 ? xPOS [3] $end
$var wire 1 @ xPOS [2] $end
$var wire 1 A xPOS [1] $end
$var wire 1 B xPOS [0] $end
$var wire 1 C xreg [3] $end
$var wire 1 D xreg [2] $end
$var wire 1 E xreg [1] $end
$var wire 1 F xreg [0] $end
$var wire 1 G yPOS [3] $end
$var wire 1 H yPOS [2] $end
$var wire 1 I yPOS [1] $end
$var wire 1 J yPOS [0] $end
$var wire 1 K yreg [3] $end
$var wire 1 L yreg [2] $end
$var wire 1 M yreg [1] $end
$var wire 1 N yreg [0] $end

$scope module i1 $end
$var wire 1 O gnd $end
$var wire 1 P vcc $end
$var wire 1 Q unknown $end
$var wire 1 R devoe $end
$var wire 1 S devclrn $end
$var wire 1 T devpor $end
$var wire 1 U ww_devoe $end
$var wire 1 V ww_devclrn $end
$var wire 1 W ww_devpor $end
$var wire 1 X ww_Clk $end
$var wire 1 Y ww_pb_n [3] $end
$var wire 1 Z ww_pb_n [2] $end
$var wire 1 [ ww_pb_n [1] $end
$var wire 1 \ ww_pb_n [0] $end
$var wire 1 ] ww_sw [7] $end
$var wire 1 ^ ww_sw [6] $end
$var wire 1 _ ww_sw [5] $end
$var wire 1 ` ww_sw [4] $end
$var wire 1 a ww_sw [3] $end
$var wire 1 b ww_sw [2] $end
$var wire 1 c ww_sw [1] $end
$var wire 1 d ww_sw [0] $end
$var wire 1 e ww_leds [7] $end
$var wire 1 f ww_leds [6] $end
$var wire 1 g ww_leds [5] $end
$var wire 1 h ww_leds [4] $end
$var wire 1 i ww_leds [3] $end
$var wire 1 j ww_leds [2] $end
$var wire 1 k ww_leds [1] $end
$var wire 1 l ww_leds [0] $end
$var wire 1 m ww_xreg [3] $end
$var wire 1 n ww_xreg [2] $end
$var wire 1 o ww_xreg [1] $end
$var wire 1 p ww_xreg [0] $end
$var wire 1 q ww_yreg [3] $end
$var wire 1 r ww_yreg [2] $end
$var wire 1 s ww_yreg [1] $end
$var wire 1 t ww_yreg [0] $end
$var wire 1 u ww_xPOS [3] $end
$var wire 1 v ww_xPOS [2] $end
$var wire 1 w ww_xPOS [1] $end
$var wire 1 x ww_xPOS [0] $end
$var wire 1 y ww_yPOS [3] $end
$var wire 1 z ww_yPOS [2] $end
$var wire 1 { ww_yPOS [1] $end
$var wire 1 | ww_yPOS [0] $end
$var wire 1 } ww_seg7_data [6] $end
$var wire 1 ~ ww_seg7_data [5] $end
$var wire 1 !! ww_seg7_data [4] $end
$var wire 1 "! ww_seg7_data [3] $end
$var wire 1 #! ww_seg7_data [2] $end
$var wire 1 $! ww_seg7_data [1] $end
$var wire 1 %! ww_seg7_data [0] $end
$var wire 1 &! ww_seg7_char1 $end
$var wire 1 '! ww_seg7_char2 $end
$var wire 1 (! \leds[0]~output_o\ $end
$var wire 1 )! \leds[1]~output_o\ $end
$var wire 1 *! \leds[2]~output_o\ $end
$var wire 1 +! \leds[3]~output_o\ $end
$var wire 1 ,! \leds[4]~output_o\ $end
$var wire 1 -! \leds[5]~output_o\ $end
$var wire 1 .! \leds[6]~output_o\ $end
$var wire 1 /! \leds[7]~output_o\ $end
$var wire 1 0! \xreg[0]~output_o\ $end
$var wire 1 1! \xreg[1]~output_o\ $end
$var wire 1 2! \xreg[2]~output_o\ $end
$var wire 1 3! \xreg[3]~output_o\ $end
$var wire 1 4! \yreg[0]~output_o\ $end
$var wire 1 5! \yreg[1]~output_o\ $end
$var wire 1 6! \yreg[2]~output_o\ $end
$var wire 1 7! \yreg[3]~output_o\ $end
$var wire 1 8! \xPOS[0]~output_o\ $end
$var wire 1 9! \xPOS[1]~output_o\ $end
$var wire 1 :! \xPOS[2]~output_o\ $end
$var wire 1 ;! \xPOS[3]~output_o\ $end
$var wire 1 <! \yPOS[0]~output_o\ $end
$var wire 1 =! \yPOS[1]~output_o\ $end
$var wire 1 >! \yPOS[2]~output_o\ $end
$var wire 1 ?! \yPOS[3]~output_o\ $end
$var wire 1 @! \seg7_data[0]~output_o\ $end
$var wire 1 A! \seg7_data[1]~output_o\ $end
$var wire 1 B! \seg7_data[2]~output_o\ $end
$var wire 1 C! \seg7_data[3]~output_o\ $end
$var wire 1 D! \seg7_data[4]~output_o\ $end
$var wire 1 E! \seg7_data[5]~output_o\ $end
$var wire 1 F! \seg7_data[6]~output_o\ $end
$var wire 1 G! \seg7_char1~output_o\ $end
$var wire 1 H! \seg7_char2~output_o\ $end
$var wire 1 I! \Clk~input_o\ $end
$var wire 1 J! \pb_n[1]~input_o\ $end
$var wire 1 K! \extender_inst|Selector1~0_combout\ $end
$var wire 1 L! \pb_n[2]~input_o\ $end
$var wire 1 M! \xy_motion_inst|Selector3~4_combout\ $end
$var wire 1 N! \pb_n[3]~input_o\ $end
$var wire 1 O! \xy_motion_inst|current_state.RELEASE~q\ $end
$var wire 1 P! \sw[4]~input_o\ $end
$var wire 1 Q! \xy_motion_inst|Selector1~0_combout\ $end
$var wire 1 R! \xy_motion_inst|current_state.HOLD_ERROR~q\ $end
$var wire 1 S! \sw[0]~input_o\ $end
$var wire 1 T! \xy_motion_inst|Selector3~2_combout\ $end
$var wire 1 U! \xy_motion_inst|Selector6~0_combout\ $end
$var wire 1 V! \y_counter_inst|ud_bin_counter[0]~3_combout\ $end
$var wire 1 W! \sw[1]~input_o\ $end
$var wire 1 X! \sw[3]~input_o\ $end
$var wire 1 Y! \sw[2]~input_o\ $end
$var wire 1 Z! \y_counter_inst|ud_bin_counter[1]~5_cout\ $end
$var wire 1 [! \y_counter_inst|ud_bin_counter[1]~7\ $end
$var wire 1 \! \y_counter_inst|ud_bin_counter[2]~8_combout\ $end
$var wire 1 ]! \y_counter_inst|ud_bin_counter[2]~9\ $end
$var wire 1 ^! \y_counter_inst|ud_bin_counter[3]~10_combout\ $end
$var wire 1 _! \y_counter_inst|process_0~1_combout\ $end
$var wire 1 `! \y_counter_inst|process_0~0_combout\ $end
$var wire 1 a! \y_counter_inst|process_0~2_combout\ $end
$var wire 1 b! \y_counter_inst|process_0~3_combout\ $end
$var wire 1 c! \x_counter_inst|process_0~4_combout\ $end
$var wire 1 d! \y_counter_inst|process_0~4_combout\ $end
$var wire 1 e! \y_counter_inst|ud_bin_counter[1]~6_combout\ $end
$var wire 1 f! \y_comparator|AEQB~0_combout\ $end
$var wire 1 g! \y_comparator|AEQB~combout\ $end
$var wire 1 h! \xy_motion_inst|Selector0~0_combout\ $end
$var wire 1 i! \xy_motion_inst|Selector0~1_combout\ $end
$var wire 1 j! \xy_motion_inst|current_state.HOLD~q\ $end
$var wire 1 k! \xy_motion_inst|Selector4~2_combout\ $end
$var wire 1 l! \xy_motion_inst|Selector5~0_combout\ $end
$var wire 1 m! \x_counter_inst|ud_bin_counter[0]~3_combout\ $end
$var wire 1 n! \sw[5]~input_o\ $end
$var wire 1 o! \sw[7]~input_o\ $end
$var wire 1 p! \sw[6]~input_o\ $end
$var wire 1 q! \x_counter_inst|ud_bin_counter[1]~5_cout\ $end
$var wire 1 r! \x_counter_inst|ud_bin_counter[1]~7\ $end
$var wire 1 s! \x_counter_inst|ud_bin_counter[2]~8_combout\ $end
$var wire 1 t! \x_counter_inst|ud_bin_counter[2]~9\ $end
$var wire 1 u! \x_counter_inst|ud_bin_counter[3]~10_combout\ $end
$var wire 1 v! \x_counter_inst|process_0~1_combout\ $end
$var wire 1 w! \x_counter_inst|process_0~0_combout\ $end
$var wire 1 x! \x_counter_inst|process_0~2_combout\ $end
$var wire 1 y! \x_counter_inst|process_0~3_combout\ $end
$var wire 1 z! \x_counter_inst|process_0~5_combout\ $end
$var wire 1 {! \x_counter_inst|ud_bin_counter[1]~6_combout\ $end
$var wire 1 |! \x_comparator|AEQB~0_combout\ $end
$var wire 1 }! \x_comparator|AEQB~combout\ $end
$var wire 1 ~! \xy_motion_inst|Selector3~3_combout\ $end
$var wire 1 !" \xy_motion_inst|Selector10~0_combout\ $end
$var wire 1 "" \extender_inst|next_state.DOWN1_118~combout\ $end
$var wire 1 #" \extender_inst|current_state.DOWN1~q\ $end
$var wire 1 $" \extender_register_inst|sreg~3_combout\ $end
$var wire 1 %" \extender_inst|Selector4~0_combout\ $end
$var wire 1 &" \extender_inst|Selector4~1_combout\ $end
$var wire 1 '" \extender_inst|Equal1~0_combout\ $end
$var wire 1 (" \extender_inst|Selector0~0_combout\ $end
$var wire 1 )" \extender_inst|next_state.DOWN0_124~combout\ $end
$var wire 1 *" \extender_inst|current_state.DOWN0~q\ $end
$var wire 1 +" \extender_inst|Selector3~0_combout\ $end
$var wire 1 ," \extender_inst|next_state.UP1_106~combout\ $end
$var wire 1 -" \extender_inst|current_state.UP1~q\ $end
$var wire 1 ." \extender_inst|Selector2~0_combout\ $end
$var wire 1 /" \extender_inst|next_state.UP0_112~combout\ $end
$var wire 1 0" \extender_inst|current_state.UP0~0_combout\ $end
$var wire 1 1" \extender_inst|current_state.UP0~q\ $end
$var wire 1 2" \extender_register_inst|sreg~2_combout\ $end
$var wire 1 3" \extender_register_inst|sreg~1_combout\ $end
$var wire 1 4" \extender_register_inst|sreg~0_combout\ $end
$var wire 1 5" \extender_inst|Equal0~0_combout\ $end
$var wire 1 6" \xy_motion_inst|Selector2~0_combout\ $end
$var wire 1 7" \xy_motion_inst|Selector2~1_combout\ $end
$var wire 1 8" \xy_motion_inst|current_state.PRESSED~q\ $end
$var wire 1 9" \xy_motion_inst|Selector7~0_combout\ $end
$var wire 1 :" \xy_motion_inst|Selector7~1_combout\ $end
$var wire 1 ;" \pb_n[0]~input_o\ $end
$var wire 1 <" \grappler_inst|next_state~5_combout\ $end
$var wire 1 =" \grappler_inst|current_state.OPEN1~q\ $end
$var wire 1 >" \grappler_inst|Selector1~0_combout\ $end
$var wire 1 ?" \grappler_inst|current_state.CLOSED0~q\ $end
$var wire 1 @" \grappler_inst|Selector0~0_combout\ $end
$var wire 1 A" \grappler_inst|current_state.OPEN0~q\ $end
$var wire 1 B" \grappler_inst|next_state~4_combout\ $end
$var wire 1 C" \grappler_inst|current_state.CLOSED1~q\ $end
$var wire 1 D" \grappler_inst|grappler_on~0_combout\ $end
$var wire 1 E" \y_counter_inst|ud_bin_counter\ [3] $end
$var wire 1 F" \y_counter_inst|ud_bin_counter\ [2] $end
$var wire 1 G" \y_counter_inst|ud_bin_counter\ [1] $end
$var wire 1 H" \y_counter_inst|ud_bin_counter\ [0] $end
$var wire 1 I" \x_counter_inst|ud_bin_counter\ [3] $end
$var wire 1 J" \x_counter_inst|ud_bin_counter\ [2] $end
$var wire 1 K" \x_counter_inst|ud_bin_counter\ [1] $end
$var wire 1 L" \x_counter_inst|ud_bin_counter\ [0] $end
$var wire 1 M" \extender_register_inst|sreg\ [3] $end
$var wire 1 N" \extender_register_inst|sreg\ [2] $end
$var wire 1 O" \extender_register_inst|sreg\ [1] $end
$var wire 1 P" \extender_register_inst|sreg\ [0] $end
$var wire 1 Q" \y_register|sreg\ [3] $end
$var wire 1 R" \y_register|sreg\ [2] $end
$var wire 1 S" \y_register|sreg\ [1] $end
$var wire 1 T" \y_register|sreg\ [0] $end
$var wire 1 U" \x_register|sreg\ [3] $end
$var wire 1 V" \x_register|sreg\ [2] $end
$var wire 1 W" \x_register|sreg\ [1] $end
$var wire 1 X" \x_register|sreg\ [0] $end
$var wire 1 Y" \grappler_inst|ALT_INV_grappler_on~0_combout\ $end
$upscope $end
$upscope $end
$enddefinitions $end
#0
$dumpvars
0!
0.
0/
0O
1P
xQ
1R
1S
1T
1U
1V
1W
0X
0&!
0'!
0(!
0)!
0*!
0+!
0,!
0-!
0.!
0/!
00!
01!
02!
03!
04!
05!
06!
07!
08!
09!
0:!
0;!
0<!
0=!
0>!
0?!
0@!
0A!
0B!
0C!
0D!
0E!
0F!
0G!
0H!
0I!
1J!
0K!
1L!
0M!
0N!
0O!
0P!
0Q!
0R!
0S!
0T!
0U!
0V!
1W!
0X!
1Y!
0Z!
1[!
1\!
0]!
1^!
0_!
1`!
0a!
0b!
0c!
0d!
1e!
0f!
0g!
0h!
0i!
0j!
0k!
0l!
0m!
1n!
1o!
1p!
0q!
1r!
1s!
0t!
1u!
0v!
1w!
0x!
0y!
0z!
1{!
0|!
0}!
0~!
1!"
0""
0#"
0$"
0%"
0&"
0'"
0("
0)"
0*"
0+"
0,"
0-"
1."
1/"
00"
01"
02"
03"
04"
15"
16"
07"
08"
09"
0:"
1;"
0<"
0="
0>"
0?"
0@"
0A"
0B"
0C"
1D"
0Y"
0*
1+
1,
1-
17
18
19
0:
0;
1<
1=
0>
0"
0#
0$
0%
0&
0'
0(
0)
0C
0D
0E
0F
0K
0L
0M
0N
0?
0@
0A
0B
0G
0H
0I
0J
00
01
02
03
04
05
06
0Y
1Z
1[
1\
1]
1^
1_
0`
0a
1b
1c
0d
0e
0f
0g
0h
0i
0j
0k
0l
0m
0n
0o
0p
0q
0r
0s
0t
0u
0v
0w
0x
0y
0z
0{
0|
0}
0~
0!!
0"!
0#!
0$!
0%!
0E"
0F"
0G"
0H"
0I"
0J"
0K"
0L"
0M"
0N"
0O"
0P"
0Q"
0R"
0S"
0T"
0U"
0V"
0W"
0X"
$end
#5000
1!
1X
1I!
#10000
0!
0X
0I!
#15000
1!
1X
1I!
#20000
0!
1*
0X
1Y
1N!
0I!
#25000
1!
1X
1I!
#30000
0!
0+
0X
0Z
0L!
0I!
1i!
1k!
17"
#35000
1!
1X
1I!
1S"
1R"
1j!
1W"
1U"
1V"
18"
12!
13!
11!
16!
15!
1v!
0w!
1x!
1|!
0k!
06"
1_!
0`!
1a!
1f!
1n
1m
1o
1r
1s
1g!
1b!
1}!
1y!
1E
1D
1C
1M
1L
#40000
0!
0X
0I!
#45000
1!
1X
1I!
#50000
0!
1+
0X
1Z
1L!
0I!
1M!
1T!
1c!
0!"
07"
1d!
1z!
1U!
1l!
1m!
1V!
0{!
0s!
0u!
0e!
0\!
0^!
#55000
1!
1X
1I!
1O!
1H"
1L"
08"
18!
1<!
0M!
0T!
1!"
0m!
1q!
0V!
1Z!
0c!
1~!
1x
1|
1M!
0!"
1e!
1{!
1B
1J
#60000
0!
0X
0I!
#65000
1!
1X
1I!
0H"
1G"
0L"
1K"
19!
08!
1=!
0<!
0{!
0r!
1m!
0q!
0x!
0|!
0e!
0[!
1V!
0Z!
0a!
0f!
1w
0x
1{
0|
1e!
1[!
1\!
1{!
1r!
1s!
0B
1A
0J
1I
0s!
0\!
#70000
0!
0X
0I!
#75000
1!
1X
1I!
1H"
1L"
18!
1<!
0m!
1q!
1|!
0V!
1Z!
1f!
1x
1|
0e!
0[!
0{!
0r!
1B
1J
1s!
1\!
#80000
0!
0X
0I!
#85000
1!
1X
1I!
0H"
1F"
0G"
0L"
1J"
0K"
09!
1:!
08!
0=!
1>!
0<!
1{!
1r!
0s!
1t!
1m!
0q!
1x!
1e!
1[!
0\!
1]!
0_!
1`!
1V!
0Z!
1a!
0w
1v
0x
0{
1z
0|
0e!
1^!
1\!
0]!
0{!
1u!
1s!
0t!
0B
0A
1@
0J
0I
1H
0u!
0^!
#90000
0!
0X
0I!
#95000
1!
1X
1I!
1H"
1L"
18!
1<!
0m!
1q!
0V!
1Z!
1x
1|
1e!
1{!
1B
1J
#100000
0!
0X
0I!
#105000
1!
1X
1I!
0H"
1G"
0L"
1K"
19!
08!
1=!
0<!
0{!
0r!
1m!
0q!
0x!
0|!
0e!
0[!
1V!
0Z!
0a!
0f!
1w
0x
1{
0|
0g!
0b!
1e!
1[!
0\!
1]!
1{!
1r!
0s!
1t!
0B
1A
0J
1I
1u!
1s!
0t!
1^!
1\!
0]!
0U!
0d!
0e!
0[!
0\!
1]!
0V!
0u!
0^!
1\!
#110000
0!
0X
0I!
#115000
1!
1X
1I!
1L"
18!
0m!
1q!
1|!
1x
0{!
0r!
1B
0s!
1t!
1u!
#120000
0!
0X
0I!
#125000
1!
1X
1I!
0L"
0J"
1I"
0K"
09!
1;!
0:!
08!
1{!
1r!
0u!
1s!
0t!
1m!
0q!
1x!
0w
1u
0v
0x
0{!
1u!
0s!
0B
0A
0@
1?
#130000
0!
0X
0I!
#135000
1!
1X
1I!
1L"
18!
0m!
1q!
1x
1{!
1B
#140000
0!
0X
0I!
#145000
1!
1X
1I!
0L"
1K"
19!
08!
0{!
0r!
1m!
0q!
0x!
0|!
1w
0x
1{!
1r!
1s!
0B
1A
0s!
#150000
0!
0X
0I!
#155000
1!
1X
1I!
1L"
18!
0m!
1q!
1|!
1x
0{!
0r!
1B
1s!
#160000
0!
0X
0I!
#165000
1!
1X
1I!
0L"
1J"
0K"
09!
1:!
08!
1{!
1r!
0s!
1t!
0v!
1w!
1m!
0q!
1x!
0w
1v
0x
0{!
0u!
1s!
0t!
0B
0A
1@
1u!
#170000
0!
0X
0I!
#175000
1!
1X
1I!
1L"
18!
0m!
1q!
1x
1{!
1B
#180000
0!
0X
0I!
#185000
1!
1X
1I!
0L"
1K"
19!
08!
0{!
0r!
1m!
0q!
0x!
0|!
1w
0x
0}!
0y!
1{!
1r!
0s!
1t!
0B
1A
0u!
1s!
0t!
1h!
0l!
0z!
0~!
0M!
1!"
0{!
0r!
0s!
1t!
0m!
0i!
1u!
1s!
#190000
0!
0X
0I!
#195000
1!
1X
1I!
0O!
0j!
16"
0h!
#200000
0!
0X
0I!
#205000
1!
1X
1I!
#210000
0!
0,
0X
0[
0J!
0I!
1K!
0."
0/"
1""
10"
#215000
1!
1X
1I!
1#"
11"
1$"
#220000
0!
0X
0I!
#225000
1!
1X
1I!
#230000
0!
1,
0X
1[
1J!
0I!
0K!
1&"
1("
1)"
0""
#235000
1!
1X
1I!
0#"
1M"
1*"
1-!
1%"
14"
05"
0&"
1g
1&"
1$
#240000
0!
0X
0I!
#245000
1!
1X
1I!
1N"
1,!
13"
1h
1%
#250000
0!
08
0X
0^
0p!
0I!
#255000
1!
1X
1I!
1O"
1+!
12"
1i
1&
#260000
0!
0X
0I!
#265000
1!
1X
1I!
1P"
1*!
1'"
1j
0%"
1'
0&"
#270000
0!
0X
0I!
#275000
1!
1X
1I!
#280000
0!
0X
0I!
#285000
1!
1X
1I!
#290000
0!
0-
0X
0\
0;"
0I!
1@"
1B"
#295000
1!
1X
1I!
1A"
1C"
#300000
0!
0X
0I!
#305000
1!
1X
1I!
#310000
0!
1-
0X
1\
1;"
0I!
1>"
0B"
#315000
1!
1X
1I!
1?"
0C"
0D"
1Y"
1)!
1k
1(
#320000
0!
0X
0I!
#325000
1!
1X
1I!
#330000
0!
0X
0I!
#335000
1!
1X
1I!
#340000
0!
0X
0I!
#345000
1!
1X
1I!
#350000
0!
0X
0I!
#355000
1!
1X
1I!
#360000
0!
0X
0I!
#365000
1!
1X
1I!
#370000
0!
0X
0I!
#375000
1!
1X
1I!
#380000
0!
0X
0I!
#385000
1!
1X
1I!
#390000
0!
0*
0X
0Y
0N!
0I!
0S"
0R"
0F"
0G"
0W"
0U"
0V"
0J"
0I"
0K"
0M"
0*"
01"
0P"
0O"
0N"
0?"
0A"
0,!
0+!
0*!
0-!
09!
0;!
0:!
02!
03!
01!
0=!
0>!
06!
05!
0>"
1D"
0@"
0$"
1."
02"
03"
1%"
0("
0'"
04"
15"
1{!
1r!
0u!
0s!
1e!
1[!
0\!
0Y"
0h
0i
0j
0g
0w
0u
0v
0n
0m
0o
0{
0z
0r
0s
1\!
0]!
1s!
0t!
0%"
0)"
1&"
1/"
0'
0&
0%
0$
0A
0@
0?
0E
0D
0C
0I
0H
0M
0L
0)!
00"
0&"
1u!
1^!
0k
0(
#395000
1!
1X
1I!
#400000
0!
0X
0I!
#405000
1!
1X
1I!
#410000
0!
1*
0X
1Y
1N!
0I!
#415000
1!
1X
1I!
#420000
0!
0X
0I!
#425000
1!
1X
1I!
#430000
0!
0X
0I!
#435000
1!
1X
1I!
#440000
0!
0X
0I!
#445000
1!
1X
1I!
#450000
0!
0X
0I!
#455000
1!
1X
1I!
#460000
0!
0X
0I!
#465000
1!
1X
1I!
#470000
0!
0X
0I!
#475000
1!
1X
1I!
#480000
0!
0X
0I!
#485000
1!
1X
1I!
#490000
0!
0X
0I!
#495000
1!
1X
1I!
#500000
0!
07
1;
1>
0X
1d
1a
0]
0o!
1X!
1S!
0I!
#505000
1!
1X
1I!
#510000
0!
0X
0I!
#515000
1!
1X
1I!
#520000
0!
0X
0I!
#525000
1!
1X
1I!
#530000
0!
0X
0I!
#535000
1!
1X
1I!
#540000
0!
0X
0I!
#545000
1!
1X
1I!
#550000
0!
0X
0I!
#555000
1!
1X
1I!
#560000
0!
0X
0I!
#565000
1!
1X
1I!
#570000
0!
0X
0I!
#575000
1!
1X
1I!
#580000
0!
0X
0I!
#585000
1!
1X
1I!
#590000
0!
0X
0I!
#595000
1!
1X
1I!
#600000
0!
0X
0I!
#605000
1!
1X
1I!
#610000
0!
0X
0I!
#615000
1!
1X
1I!
#620000
0!
0X
0I!
#625000
1!
1X
1I!
#630000
0!
0X
0I!
#635000
1!
1X
1I!
#640000
0!
0X
0I!
#645000
1!
1X
1I!
#650000
0!
0X
0I!
#655000
1!
1X
1I!
#660000
0!
0X
0I!
#665000
1!
1X
1I!
#670000
0!
0X
0I!
#675000
1!
1X
1I!
#680000
0!
0X
0I!
#685000
1!
1X
1I!
#690000
0!
0X
0I!
#695000
1!
1X
1I!
#700000
0!
0X
0I!
#705000
1!
1X
1I!
#710000
0!
0X
0I!
#715000
1!
1X
1I!
#720000
0!
0X
0I!
#725000
1!
1X
1I!
#730000
0!
0X
0I!
#735000
1!
1X
1I!
#740000
0!
0X
0I!
#745000
1!
1X
1I!
#750000
0!
0X
0I!
#755000
1!
1X
1I!
#760000
0!
0X
0I!
#765000
1!
1X
1I!
#770000
0!
0X
0I!
#775000
1!
1X
1I!
#780000
0!
0X
0I!
#785000
1!
1X
1I!
#790000
0!
0X
0I!
#795000
1!
1X
1I!
#800000
0!
0X
0I!
#805000
1!
1X
1I!
#810000
0!
0X
0I!
#815000
1!
1X
1I!
#820000
0!
0X
0I!
#825000
1!
1X
1I!
#830000
0!
0X
0I!
#835000
1!
1X
1I!
#840000
0!
0X
0I!
#845000
1!
1X
1I!
#850000
0!
0X
0I!
#855000
1!
1X
1I!
#860000
0!
0X
0I!
#865000
1!
1X
1I!
#870000
0!
0X
0I!
#875000
1!
1X
1I!
#880000
0!
0X
0I!
#885000
1!
1X
1I!
#890000
0!
0X
0I!
#895000
1!
1X
1I!
#900000
0!
0X
0I!
#905000
1!
1X
1I!
#910000
0!
0X
0I!
#915000
1!
1X
1I!
#920000
0!
0X
0I!
#925000
1!
1X
1I!
#930000
0!
0X
0I!
#935000
1!
1X
1I!
#940000
0!
0X
0I!
#945000
1!
1X
1I!
#950000
0!
0X
0I!
#955000
1!
1X
1I!
#960000
0!
0X
0I!
#965000
1!
1X
1I!
#970000
0!
0X
0I!
#975000
1!
1X
1I!
#980000
0!
0X
0I!
#985000
1!
1X
1I!
#990000
0!
0X
0I!
#995000
1!
1X
1I!
